TFID_Visualization
…
hillary_filenames <- list.files(getwd(), pattern="*.txt")
hillary_files <- lapply(hillary_filenames, readLines)
typeof(hillary_files)

## [1] "list"

# VectorSource: A vector giving the texts.
hillary_sentence = unlist(hillary_files)
hillary_dataframe <- data_frame(file = 1:length(hillary_sentence), text = hillary_sentence)
hillary_dataframe_tidy <- hillary_dataframe %>% 
              unnest_tokens(word, text)
hillary_dataframe_tidy

## # A tibble: 16,652 x 2
##     file word    
##    <int> <chr>   
##  1     1 x       
##  2     2 1       
##  3     2 tomorrow
##  4     2 we      
##  5     2 have    
##  6     2 the     
##  7     2 chance  
##  8     2 to      
##  9     2 stand   
## 10     2 up      
## # ... with 16,642 more rows

hillary_dataframe_tidy_2 <- hillary_dataframe_tidy %>%
        anti_join(stop_words) %>%
        count(word, sort = TRUE)

## Joining, by = "word"

hillary_dataframe_tidy_2

## # A tibble: 2,543 x 2
##    word                   n
##    <chr>              <int>
##  1 1                    649
##  2 hillary              200
##  3 trump                152
##  4 president            128
##  5 donald               102
##  6 america               61
##  7 live                  49
##  8 vote                  48
##  9 de                    46
## 10 hillaryclinton.com    46
## # ... with 2,533 more rows

hillary_dataframe_self_check = subset(hillary_dataframe_tidy_2, word != 1 )
hillary_dataframe_self_check = subset(hillary_dataframe_self_check, word != "de" )
hillary_dataframe_self_check[hillary_dataframe_self_check$n == "hillary's"] <- "hillary"
hillary_dataframe_self_check

## # A tibble: 2,541 x 2
##    word                   n
##    <chr>              <int>
##  1 hillary              200
##  2 trump                152
##  3 president            128
##  4 donald               102
##  5 america               61
##  6 live                  49
##  7 vote                  48
##  8 hillaryclinton.com    46
##  9 clinton               42
## 10 people                42
## # ... with 2,531 more rows

hillary_dataframe_self_check = subset(hillary_dataframe_self_check )
hillary_dataframe_self_check

## # A tibble: 2,541 x 2
##    word                   n
##    <chr>              <int>
##  1 hillary              200
##  2 trump                152
##  3 president            128
##  4 donald               102
##  5 america               61
##  6 live                  49
##  7 vote                  48
##  8 hillaryclinton.com    46
##  9 clinton               42
## 10 people                42
## # ... with 2,531 more rows
…
# wordcloud2(data = hillary_dataframe_self_check, size=1)

trump_dataframe_self_check

## # A tibble: 1,759 x 2
##    word                      n
##    <chr>                 <int>
##  1 america                 168
##  2 trump                   107
##  3 join                     79
##  4 makeamericagreatagain    75
##  5 live                     71
##  6 hillary                  70
##  7 vote                     61
##  8 people                   56
##  9 www.donaldjtrump.com     56
## 10 support                  52
## # ... with 1,749 more rows

hillary_dataframe_self_check

## # A tibble: 2,541 x 2
##    word                   n
##    <chr>              <int>
##  1 hillary              200
##  2 trump                152
##  3 president            128
##  4 donald               102
##  5 america               61
##  6 live                  49
##  7 vote                  48
##  8 hillaryclinton.com    46
##  9 clinton               42
## 10 people                42
## # ... with 2,531 more rows
…
